Ten less known yet time-saving tidyverse functions
…
 [1] "dominate cocoa notes"          "muted, nutty"                 
 [3] "intense, sweet, brownie"       "creamy, complex, coffee"      
 [5] "sandy, tobacco, molasses"      "strawberry, butterscotch, off"
 [7] "nutty, off, roasty, fatty"     "astringent, smomkey cocoa"    
 [9] "grassy, earthy, coffee"        "gritty, sticky, smoke,hammy"  

Often, we would like to “unlist” those characteristics, maybe to understand how people describe chocolate. One way of doing this is using separate(). However, this poses an inconvenience when the number of objects in the list is unknown or variable. ‘separate_rows()’ simplifies the process.

chocolate_separated <- chocolate %>% 
    select(most_memorable_characteristics, rating) %>% 
    separate_rows(most_memorable_characteristics, sep = ", ") 

chocolate_separated

# A tibble: 6,927 x 2
   most_memorable_characteristics rating
   <chr>                           <dbl>
 1 rich cocoa                       3.25
 2 fatty                            3.25
 3 bready                           3.25
 4 cocoa                            3.5 
 5 vegetal                          3.5 
 6 savory                           3.5 
 7 cocoa                            3.75
 8 blackberry                       3.75
 9 full body                        3.75
10 chewy                            3   
# ... with 6,917 more rows
…
2 - filter with if_any(), if_all()

Another common problem is filtering across columns. One neat trick is to use if_any() and if_all(). Suppose we want to filter common words that also have a high avg_rating.

chocolate_words %>% 
    filter(if_all(n:avg_rating, ~.x > quantile(.x, 0.75))) %>% 
    arrange(desc(avg_rating))

# A tibble: 21 x 3
   most_memorable_characteristics     n avg_rating
   <chr>                          <int>      <dbl>
 1 peanut                             7       3.75
 2 balanced                          16       3.73
 3 raspberry                         13       3.71
 4 mild tart                          4       3.69
 5 rich choco                         4       3.69
 6 robust                             4       3.69
 7 long                              10       3.62
 8 blackberry                        11       3.61
 9 delicate                          12       3.60
10 dark berry                        17       3.60
# ... with 11 more rows

Or maybe, you want to filter words that are either common or have high average rating.

chocolate_words %>% 
    filter(if_any(n:avg_rating, ~.x > quantile(.x, 0.75))) %>% 
    arrange(desc(n))

# A tibble: 366 x 3
   most_memorable_characteristics     n avg_rating
   <chr>                          <int>      <dbl>
 1 sweet                            264       3.05
 2 nutty                            259       3.29
 3 cocoa                            242       3.38
 4 roasty                           209       3.20
 5 earthy                           187       3.03
 6 creamy                           186       3.47
 7 sandy                            164       3.10
 8 fatty                            163       3.08
 9 floral                           143       3.25
10 spicy                            138       3.30
# ... with 356 more rows

These functions help a lot when dealing with many columns of similar properties. Especially if you work with questionnaires or questionnaires scores and want to see if multiple categories are true.

3 - condition with !x %in% y

One of the functions I love and use frequently is %in%. However, its negation is often not intuitive. Some people use packages to allow for a %nin% function, (others build their own function)[https://twitter.com/vishal_katti/status/1111712316649689088]. Maybe it is because I learned R before SQL, but I prefer not writing a function or using a package for just one function when I can use an existing syntax.

chocolate %>% 
    count(company_location, sort = T) %>% 
    filter(!company_location %in% c("U.S.A.", "Canada", "France"))

# A tibble: 64 x 2
   company_location     n
   <chr>            <int>
 1 U.K.               133
 2 Italy               78
 3 Belgium             63
 4 Ecuador             58
 5 Australia           53
 6 Switzerland         44
 7 Germany             42
 8 Spain               36
 9 Denmark             31
10 Japan               31
# ... with 54 more rows
…
Visualizations

Whenever visualizing multiple time-series, arranging the legend can be a pain. the usual fct_reorder() does not deliver here. No more. Notice the difference in the order.

6 - fct_reorder2()

chocolate_rating_by_year_company <- chocolate %>%
    group_by(company_manufacturer) %>%
    filter(n() >= 30, review_date <= 2018) %>%
    group_by(company_manufacturer, review_date) %>%
    summarize(avg_rating = mean(rating), .groups = "drop")

chocolate_rating_by_year_company

# A tibble: 30 x 3
   company_manufacturer review_date avg_rating
   <chr>                      <dbl>      <dbl>
 1 Arete                       2015       3.5 
 2 Arete                       2016       3.56
 3 Arete                       2017       3.67
 4 Arete                       2018       3.5 
 5 Bonnat                      2006       3.39
 6 Bonnat                      2007       2.5 
 7 Bonnat                      2008       4   
 8 Bonnat                      2009       2.94
 9 Bonnat                      2011       3.62
10 Bonnat                      2013       3.38
# ... with 20 more rows
…
Interactive coding

8 - mid-pipe print()

After building a massive piping system, sometimes you want to print an intermediate value to check that everything performs as expected. Just pipe, print, and pipe again. When you finish, you could just Ctrl + D those lines.

chocolate %>% 
    print() %>% 
    select(company_manufacturer, rating) %>% 
    print() %>% 
    group_by(company_manufacturer) %>% 
    summarize(n = n(), avg_rating = mean(rating))

# A tibble: 2,530 x 10
     ref company_manufacturer company_location review_date
   <dbl> <chr>                <chr>                  <dbl>
 1  2454 5150                 U.S.A.                  2019
 2  2458 5150                 U.S.A.                  2019
 3  2454 5150                 U.S.A.                  2019
 4  2542 5150                 U.S.A.                  2021
 5  2546 5150                 U.S.A.                  2021
 6  2546 5150                 U.S.A.                  2021
 7  2542 5150                 U.S.A.                  2021
 8   797 A. Morin             France                  2012
 9   797 A. Morin             France                  2012
10  1011 A. Morin             France                  2013
# ... with 2,520 more rows, and 6 more variables:
#   country_of_bean_origin <chr>,
#   specific_bean_origin_or_bar_name <chr>, cocoa_percent <chr>,
#   ingredients <chr>, most_memorable_characteristics <chr>,
#   rating <dbl>
# A tibble: 2,530 x 2
   company_manufacturer rating
   <chr>                 <dbl>
 1 5150                   3.25
 2 5150                   3.5 
 3 5150                   3.75
 4 5150                   3   
 5 5150                   3   
 6 5150                   3.25
 7 5150                   3.5 
 8 A. Morin               3.5 
 9 A. Morin               3.75
10 A. Morin               2.75
# ... with 2,520 more rows

# A tibble: 580 x 3
   company_manufacturer              n avg_rating
   <chr>                         <int>      <dbl>
 1 5150                              7       3.32
 2 A. Morin                         26       3.42
 3 Acalli                            4       3.56
 4 Adi aka Fijiana (Easy In Ltd)     4       3.25
 5 Aelan                             4       2.75
 6 Aequare (Gianduja)                2       2.88
 7 Ah Cacao                          1       3   
 8 Akesson's (Pralus)                3       3.08
 9 Alain Ducasse                     6       2.83
10 Alexandre                         4       3.5 
# ... with 570 more rows

9 - identity()

This one is a frustration-saver. When working with pipes, it could be exhausting to remove the previous line whenever you delete the last line. Add an identity() as the last line, and then you can add/remove all the others without worries.

chocolate %>% 
    count(company_manufacturer) %>% 
    identity()

# A tibble: 580 x 2
   company_manufacturer              n
   <chr>                         <int>
 1 5150                              7
 2 A. Morin                         26
 3 Acalli                            4
 4 Adi aka Fijiana (Easy In Ltd)     4
 5 Aelan                             4
 6 Aequare (Gianduja)                2
 7 Ah Cacao                          1
 8 Akesson's (Pralus)                3
 9 Alain Ducasse                     6
10 Alexandre                         4
# ... with 570 more rows
…
